Einführung in R – Grammar of Graphics und ggplot2
…
Mit ein bisschen R-Magie machen wir daraus einen ggplot-kompatiblen Datensatz mit den drei Variablen x-Dimension, y-Dimension und Korrelation:

Code

r <- palmerpenguins::penguins %>%
  select(where(is.numeric)) %>%
  cor(., use = 'p')

r <- tibble(x = rep(row.names(r), nrow(r)),
       y = rep(colnames(r), each=nrow(r)),
       r = c(r))

r

# A tibble: 25 × 3
   x                 y                    r
   <chr>             <chr>            <dbl>
 1 bill_length_mm    bill_length_mm  1     
 2 bill_depth_mm     bill_length_mm -0.235 
 3 flipper_length_mm bill_length_mm  0.656 
 4 body_mass_g       bill_length_mm  0.595 
 5 year              bill_length_mm  0.0545
 6 bill_length_mm    bill_depth_mm  -0.235 
 7 bill_depth_mm     bill_depth_mm   1     
 8 flipper_length_mm bill_depth_mm  -0.584 
 9 body_mass_g       bill_depth_mm  -0.472 
10 year              bill_depth_mm  -0.0604
# ℹ 15 more rows
…
