Einführung in R - tidymodels
…
── Operations 

• Centering for: sqft, beds, price | Trained

• Scaling for: sqft, beds, price | Trained

Und mit bake können wir das Rezept abschließend anwenden:

scaled_data <- my_prep %>% 
  bake(Sacramento)

scaled_data

# A tibble: 932 × 3
     sqft   beds price
    <dbl>  <dbl> <dbl>
 1 -1.16  -1.44  -1.43
 2 -0.707 -0.311 -1.36
 3 -1.22  -1.44  -1.36
 4 -1.14  -1.44  -1.35
 5 -1.22  -1.44  -1.26
 6 -0.769 -0.311 -1.20
 7 -0.794 -0.311 -1.19
 8 -0.693 -0.311 -1.19
 9 -1.02  -1.44  -1.16
10 -0.736 -0.311 -1.13
# ℹ 922 more rows
…
Abb 7.1: Infer-Workflow - von https://infer.tidymodels.org/

Wir könnten zum Beispiel die Annahme haben, dass die Art der Mietwohnungen unterschiedlich in den verschiedenen Städten verteilt sind. Die uns interessierenden Variablen sind also type und city. Das legen wir zuallererst mit specify fest:

Sacramento %>% 
  specify(type ~ city)

Response: type (factor)
Explanatory: city (factor)
# A tibble: 932 × 2
   type        city          
   <fct>       <fct>         
 1 Residential SACRAMENTO    
 2 Residential SACRAMENTO    
 3 Residential SACRAMENTO    
 4 Residential SACRAMENTO    
 5 Residential SACRAMENTO    
 6 Condo       SACRAMENTO    
 7 Residential SACRAMENTO    
 8 Residential SACRAMENTO    
 9 Condo       RANCHO_CORDOVA
10 Residential RIO_LINDA     
# ℹ 922 more rows

Unsere Nullhypothese ist unabhängigkeit, die können wir also direkt hinzufügen:

Sacramento %>% 
  specify(type ~ city) %>% 
  hypothesize('independence')

Response: type (factor)
Explanatory: city (factor)
Null Hypothesis: independence
# A tibble: 932 × 2
   type        city          
   <fct>       <fct>         
 1 Residential SACRAMENTO    
 2 Residential SACRAMENTO    
 3 Residential SACRAMENTO    
 4 Residential SACRAMENTO    
 5 Residential SACRAMENTO    
 6 Condo       SACRAMENTO    
 7 Residential SACRAMENTO    
 8 Residential SACRAMENTO    
 9 Condo       RANCHO_CORDOVA
10 Residential RIO_LINDA     
# ℹ 922 more rows

Um nun Daten für den Test zu generieren, können wir 1000 Datensätze mit Permuationen der Reihenfolge einer der Variablen generieren:

Sacramento %>% 
  specify(type ~ city) %>% 
  hypothesize('independence') %>% 
  generate(reps = 1000, type = 'permute')

Response: type (factor)
Explanatory: city (factor)
Null Hypothesis: independence
# A tibble: 932,000 × 3
# Groups:   replicate [1,000]
   type        city           replicate
   <fct>       <fct>              <int>
 1 Residential SACRAMENTO             1
 2 Residential SACRAMENTO             1
 3 Residential SACRAMENTO             1
 4 Residential SACRAMENTO             1
 5 Residential SACRAMENTO             1
 6 Residential SACRAMENTO             1
 7 Residential SACRAMENTO             1
 8 Residential SACRAMENTO             1
 9 Residential RANCHO_CORDOVA         1
10 Residential RIO_LINDA              1
# ℹ 931,990 more rows

Zuletzt müssen wir noch eine Teststatistik berechnen, deren Verteilung wir betrachten können. Bei unserem Fall bietet sich natürlich \(\chi^2\) an:

Sacramento %>% 
  specify(type ~ city) %>% 
  hypothesize('independence') %>% 
  generate(reps = 1000, type = 'permute') %>% 
  calculate('Chisq')

Response: type (factor)
Explanatory: city (factor)
Null Hypothesis: independence
# A tibble: 1,000 × 2
   replicate  stat
       <int> <dbl>
 1         1 130. 
 2         2 107. 
 3         3  45.1
 4         4  38.0
 5         5  57.3
 6         6  52.6
 7         7  99.1
 8         8  62.3
 9         9  76.5
10        10  52.5
# ℹ 990 more rows
…
