Einführung in R – Zusammenführen von Datensätzen
…
Antwort aufdecken

join_

Jetzt müssen wir das ganze nur noch zusammenfügen. Dafür benutzen wir die Familien der join-Funktionen

Zuerst fügen wir die Anzahl der Straftaten zu der Anzahl der Krankenhauseinweisungen hinzu. Dabei matchen wir die Regionen über das Regions-Schlüsselwort und behalten nur die Fälle, in denen in beiden Datensätzen ein Schlüsselwort auftaucht:

overall <- drugs %>% 
  inner_join(crime, 
             by = join_by(Region == Force))
overall

# A tibble: 21 × 5
   `ONS-Code` Region           Admissions Homicide
   <chr>      <chr>                 <dbl>    <dbl>
 1 E10000006  Cumbria                  72        7
 2 E10000017  Lancashire              214       16
 3 E10000023  North Yorkshire          44        9
 4 E10000007  Derbyshire               81        4
 5 E10000018  Leicestershire           56        6
 6 E10000019  Lincolnshire             56       10
 7 E10000021  Northamptonshire          0        8
 8 E12000005  West Midlands           552       NA
 9 E10000028  Staffordshire            59       14
10 E10000031  Warwickshire             26        6
# ℹ 11 more rows
# ℹ 1 more variable: `Attempted murder` <dbl>
…
eine Neubenennung anstößt

3

indem Du ausgewählte Spaltennamen in Kleinbuchstaben übersetzt

4

und zwar für alle Spalten.

Damit ist unser Datensatz fertig:

overall

# A tibble: 21 × 6
   `ons-code` region           admissions homicide
   <chr>      <chr>                 <dbl>    <dbl>
 1 E10000006  Cumbria                  72        7
 2 E10000017  Lancashire              214       16
 3 E10000023  North Yorkshire          44        9
 4 E10000007  Derbyshire               81        4
 5 E10000018  Leicestershire           56        6
 6 E10000019  Lincolnshire             56       10
 7 E10000021  Northamptonshire          0        8
 8 E12000005  West Midlands           552       NA
 9 E10000028  Staffordshire            59       14
10 E10000031  Warwickshire             26        6
# ℹ 11 more rows
# ℹ 2 more variables: `attempted murder` <dbl>,
#   satisfaction <dbl>
…
Antwort aufdecken

Pivotieren von Datensätzen

Für SPSS-Nutzer:innen sehen viele Datensätze, die wir bisher gesehen haben, wahrscheinlich etwas seltsam aus. Das liegt vielleicht zum Teil daran, dass das tidyverse grundsätzlich das long-Format dem wide-Format vorzieht.

Das folgende Beispiel der Ergebnisse der Bundestagswahlen nach 2002 1 illustriert vielleicht den Unterschied. Im wide-Format ist das zentrale Ziel dass pro Fall eine Zeile vorliegt, im long-Format wird pro Variable eine Spalte angelegt.

1 gekürzt von https://www.bundestag.de/parlament/wahlen/ergebnisse_seit1949-244692

long-Format

# A tibble: 35 × 3
    Jahr Partei                Zweitstimmen
   <int> <chr>                        <dbl>
 1  2021 CDU/CSU                       24.1
 2  2021 SPD                           25.7
 3  2021 FDP                           11.5
 4  2021 Bündnis 90/Die Grünen         14.8
 5  2021 Die Linke. PDS                 4.9
 6  2021 AfD                           10.3
 7  2021 Sonstige                       8.7
 8  2017 CDU/CSU                       32.9
 9  2017 SPD                           20.5
10  2017 FDP                           10.7
# ℹ 25 more rows
…
Wir würden gern eine ggplot-Grafik erstellen, in der die Verläufe der Stimmen über die Zeit dargestellt sind. Da wir alle Zweitstimmen-Prozente auf einem aesthetic darstellen wollen, brauchen wir den Datensatz aber natürlich im long-Format

Das pivotieren geht mit pivot_longer auch sehr einfach:

btw_long <- bundestagswahl %>% 
  pivot_longer(-Jahr,
               names_to = 'Partei',
               values_to = 'Zweitstimmen')
btw_long

# A tibble: 140 × 3
    Jahr Partei                Zweitstimmen
   <int> <chr>                        <dbl>
 1  2021 CDU/CSU                       24.1
 2  2021 SPD                           25.7
 3  2021 FDP                           11.5
 4  2021 Bündnis 90/Die Grünen         14.8
 5  2021 Die Linke. PDS                 4.9
 6  2021 AfD                           10.3
 7  2021 Sonstige                       8.7
 8  2017 CDU/CSU                       32.9
 9  2017 SPD                           20.5
10  2017 FDP                           10.7
# ℹ 130 more rows
…
