Einführung in R - Daten einlesen
…
…in unserem Fall vielleicht ein bisschen zu rigoros

Die zweite Möglichkeit ist replace_na, eine Funktion die, wie der Name schon sagt, NAs durch festgelegte Werte ersetzen kann. Mit unserem mutate von eben kombiniert, können wir so alle fehlenden Zahlen im Datensatz durch 0 ersetzen:

drugs %>% 
  mutate(
    across(where(is.numeric),
           ~replace_na(., 0))
  )

# A tibble: 195 × 7
   ...1     ...2  ...3  ...4  `All persons9`  Male
   <chr>    <chr> <chr> <chr>          <dbl> <dbl>
 1 <NA>     <NA>  <NA>  <NA>               0     0
 2 E920000… <NA>  <NA>  Engl…           7139  5294
 3 <NA>     <NA>  <NA>  <NA>               0     0
 4 U        <NA>  U     Unkn…            244   202
 5 <NA>     <NA>  <NA>  <NA>               0     0
 6 E120000… <NA>  A     Nort…            276   194
 7 E060000… <NA>  116   Coun…             56    40
 8 E060000… <NA>  117   Darl…             26    16
 9 E080000… <NA>  106   Gate…             12     0
10 E060000… <NA>  111   Hart…             29     0
# ℹ 185 more rows
# ℹ 1 more variable: Female <dbl>

Jetzt können wir noch die fehlenden character umgewandeln:

drugs <- drugs %>% 
  mutate(
    across(where(is.numeric),
           ~replace_na(., 0)),
    across(where(is.character),
           ~replace_na(., ''))
  )
drugs

# A tibble: 195 × 7
   ...1     ...2  ...3  ...4  `All persons9`  Male
   <chr>    <chr> <chr> <chr>          <dbl> <dbl>
 1 ""       ""    ""    ""                 0     0
 2 "E92000… ""    ""    "Eng…           7139  5294
 3 ""       ""    ""    ""                 0     0
 4 "U"      ""    "U"   "Unk…            244   202
 5 ""       ""    ""    ""                 0     0
 6 "E12000… ""    "A"   "Nor…            276   194
 7 "E06000… ""    "116" "Cou…             56    40
 8 "E06000… ""    "117" "Dar…             26    16
 9 "E08000… ""    "106" "Gat…             12     0
10 "E06000… ""    "111" "Har…             29     0
# ℹ 185 more rows
# ℹ 1 more variable: Female <dbl>
…
